{"page":0,"pageSize":10,"totalElements":554,"totalPages":56,"content":[{"fecha":"2024-11-01","nombreCentral":"LAUTARO_2_BL1","configuración":"LAUTARO_2_BL1","empresa":"COMASA","tipoCombustible":"Biomasa","costoCombustible":20.039679},{"fecha":"2024-11-01","nombreCentral":"LAUTARO_2_BL2","configuración":"LAUTARO_2_BL2","empresa":"COMASA","tipoCombustible":"Biomasa","costoCombustible":33.416737},{"fecha":"2024-11-01","nombreCentral":"DEGAÑ 2","configuración":"DEGAN_2_NAVE6","empresa":"NUEVA DEGAN","tipoCombustible":"Diesel","costoCombustible":1345.3547},{"fecha":"2024-11-01","nombreCentral":"LICANTEN_BL2","configuración":"LICANTEN_BL2","empresa":"CELULOSA ARAUCO","tipoCombustible":"Biomasa","costoCombustible":34.813076},{"fecha":"2024-11-01","nombreCentral":"COGENERADORA_ACONCAGUA","configuración":"ACONCAGUA_COGEN","empresa":"ENAP Refinerías S.A.","tipoCombustible":"Gas Natural","costoCombustible":223.68},{"fecha":"2024-11-01","nombreCentral":"NUEVA_ALDEA_2","configuración":"NUEVA_ALDEA_2","empresa":"ARAUCO BIOENERGÍA","tipoCombustible":"Diesel","costoCombustible":904.40607},{"fecha":"2024-11-01","nombreCentral":"TERMOELÉCTRICA MEJILLONES","configuración":"IE_MEJILLONES","empresa":"ENGIE","tipoCombustible":"Carbón","costoCombustible":150.18733},{"fecha":"2024-11-01","nombreCentral":"CMPC_PACIFICO_BL3","configuración":"CMPC_PACIFICO_BL3","empresa":"BIOENERGIAS FORESTALES","tipoCombustible":"Fuel Oil Nro. 6","costoCombustible":548.73376},{"fecha":"2024-11-01","nombreCentral":"TENO_GAS_50","configuración":"TENO_GAS_50_GLP","empresa":"INERSA","tipoCombustible":"Otro","costoCombustible":500.34793},{"fecha":"2024-11-01","nombreCentral":"ATACAMA","configuración":"ATA-TG1A_GNL_B","empresa":"ENEL GENERACION","tipoCombustible":"Gas Natural","costoCombustible":375.4079}]}