{"page":0,"pageSize":10,"totalElements":21,"totalPages":3,"content":[{"id":"569424cc8ae3783d68aa5449","active":true,"created":"2016-02-15T04:30:51.878+00:00","name":"LP (Unidad con limitación de programada)","modified":"2016-04-14T12:37:52.134+00:00","modules":["desconexion_intervencion"]},{"id":"569424cc8ae3783d68aa544a","active":true,"created":"2016-02-15T04:30:51.893+00:00","name":"LF (Unidad con limitación forzada)","modified":"2016-04-14T12:37:52.140+00:00","modules":["desconexion_intervencion","informe_fallas","limitaciones"]},{"id":"569424cc8ae3783d68aa544b","active":true,"created":"2016-02-15T04:30:51.897+00:00","name":"LC (Unidad con limitación de combustible)","modified":"2016-04-14T12:37:52.146+00:00","modules":["desconexion_intervencion","informe_fallas","limitaciones"]},{"id":"569424cc8ae3783d68aa544c","active":true,"created":"2016-02-15T04:30:51.901+00:00","name":"LCI (Unidad con limitación de combustible por Instalaciones)","modified":"2016-04-14T12:37:52.151+00:00","modules":["desconexion_intervencion","informe_fallas","limitaciones"]},{"id":"569424cc8ae3783d68aa544d","active":true,"created":"2016-02-15T04:30:51.905+00:00","name":"PDO (Unidad en prueba operacional solicitada por la DO)","modified":"2016-04-14T12:37:52.163+00:00","modules":["desconexion_intervencion"]},{"id":"569424cc8ae3783d68aa544e","active":true,"created":"2016-02-15T04:30:51.908+00:00","name":"RO (Unidad con Restricción Operativa)","modified":"2016-04-14T12:37:52.174+00:00","modules":["desconexion_intervencion","informe_fallas","limitaciones","reduccion_consumo","reduccion_generacion"]},{"id":"569424cc8ae3783d68aa544f","active":true,"created":"2016-02-15T04:30:51.912+00:00","name":"DLP (Unidad desconectada con limitación programada)","modified":"2016-04-14T12:37:52.192+00:00","modules":["desconexion_intervencion"]},{"id":"569424cc8ae3783d68aa5450","active":true,"created":"2016-02-15T04:30:51.915+00:00","name":"DLF (Unidad desconectada con limitación forzada)","modified":"2016-04-14T12:37:52.198+00:00","modules":["desconexion_intervencion","informe_fallas"]},{"id":"569424cc8ae3783d68aa5451","active":true,"created":"2016-02-15T04:30:51.921+00:00","name":"DLC (Unidad desconectada con limitación de combustible)","modified":"2016-04-14T12:37:52.204+00:00","modules":["desconexion_intervencion","informe_fallas"]},{"id":"569424cc8ae3783d68aa5452","active":true,"created":"2016-02-15T04:30:51.925+00:00","name":"DLCI (Unidad desconectada con limitación de combustible por Instalaciones)","modified":"2016-04-14T12:37:52.210+00:00","modules":["desconexion_intervencion","informe_fallas"]}]}